2 1. Compréhension du contexte et des données – Mandat dunin
…
{xml_document}
<xmlDunin version="1.00">
[1] <obj clas="Comm">\n  <prop nom="$aNote" type="boolean"><![CDATA[false]]>< ...

2.3.5 extractions des information et tables potentielles des différents fichiers xmls

2.3.5.1 fichiers DocumXML et EveXML de la table CommEW (commandes)

 load("C:/Users/datch/Desktop/aviviaMandatDoc/data/commandes.RData")
 #
 commandes 

$CabBase
# A tibble: 1,797 × 134
   `$forme` `$profInt` `$t_$profInt` `$profIntOuv` `$t_$profIntOuv` haut  
   <chr>    <chr>      <chr>         <chr>         <chr>            <chr> 
 1 Cube     581.025    "22.875\""    581.025       "22.875\""       882.65
 2 Cube     581.025    "22.875\""    581.025       "22.875\""       882.65
 3 Corner2  587.375    "23.125\""    587.375       "23.125\""       882.65
 4 Cube     581.025    "22.875\""    581.025       "22.875\""       882.65
 5 Cube     581.025    "22.875\""    581.025       "22.875\""       882.65
 6 Cube     581.025    "22.875\""    581.025       "22.875\""       882.65
 7 Cube     587.375    "23.125\""    587.375       "23.125\""       882.65
 8 Cube     581.025    "22.875\""    581.025       "22.875\""       882.65
 9 Cube     587.375    "23.125\""    587.375       "23.125\""       882.65
10 Cube     581.025    "22.875\""    581.025       "22.875\""       882.65
# ℹ 1,787 more rows
# ℹ 128 more variables: `$t_haut` <chr>, hautReel <chr>, `$t_hautReel` <chr>,
#   larg <chr>, `$t_larg` <chr>, larg2Reel <chr>, `$t_larg2Reel` <chr>,
#   largReel <chr>, `$t_largReel` <chr>, prof <chr>, `$t_prof` <chr>,
#   prof2Reel <chr>, `$t_prof2Reel` <chr>, profReel <chr>, `$t_profReel` <chr>,
#   `$totNbDrawBox` <chr>, `$zones` <chr>, blind <chr>, blindD <chr>,
#   blindEpais <chr>, `$t_blindEpais` <chr>, blindG <chr>, …
…
$CabBFillerAuto
# A tibble: 187 × 97
   `$profInt` `$t_$profInt` `$profIntOuv` `$t_$profIntOuv` haut   `$t_haut`
   <chr>      <chr>         <chr>         <chr>            <chr>  <chr>    
 1 596.9      "23.5\""      596.9         "23.5\""         882.65 "34.75\""
 2 520.7      "20.5\""      520.7         "20.5\""         831.85 "32.75\""
 3 596.9      "23.5\""      596.9         "23.5\""         882.65 "34.75\""
 4 596.9      "23.5\""      596.9         "23.5\""         882.65 "34.75\""
 5 596.9      "23.5\""      596.9         "23.5\""         882.65 "34.75\""
 6 596.9      "23.5\""      596.9         "23.5\""         882.65 "34.75\""
 7 520.7      "20.5\""      520.7         "20.5\""         831.85 "32.75\""
 8 596.9      "23.5\""      596.9         "23.5\""         882.65 "34.75\""
 9 469.9      "18.5\""      469.9         "18.5\""         882.65 "34.75\""
10 419.1      "16.5\""      419.1         "16.5\""         882.65 "34.75\""
# ℹ 177 more rows
# ℹ 91 more variables: hautReel <chr>, `$t_hautReel` <chr>, larg <chr>,
#   `$t_larg` <chr>, larg2Reel <chr>, `$t_larg2Reel` <chr>, largReel <chr>,
#   `$t_largReel` <chr>, prof <chr>, `$t_prof` <chr>, prof2Reel <chr>,
#   `$t_prof2Reel` <chr>, profReel <chr>, `$t_profReel` <chr>, blind <chr>,
#   blindD <chr>, blindEpais <chr>, `$t_blindEpais` <chr>, blindG <chr>,
#   blindVisLarg <chr>, `$t_blindVisLarg` <chr>, edgeDos <chr>, …
…
$CabTall
# A tibble: 336 × 121
   `eve$porteAvec` `eve$tiroirSeulement` `$forme` `$profInt` `$t_$profInt`
   <chr>           <chr>                 <chr>    <chr>      <chr>        
 1 true            "false"               Cube     581.025    "22.875\""   
 2 true            "false"               Cube     581.025    "22.875\""   
 3 true            "false"               Cube     581.025    "22.875\""   
 4 true            "false"               Cube     581.025    "22.875\""   
 5 true            "false"               Cube     377.825    "14.875\""   
 6 true            "false"               Cube     581.025     <NA>        
 7 true            ""                    Cube     580.4      "22.850394\""
 8 true            "false"               Cube     581.025    "22.875\""   
 9 true            "false"               Cube     581.025     <NA>        
10 true            "false"               Cube     581.025     <NA>        
# ℹ 326 more rows
# ℹ 116 more variables: `$profIntOuv` <chr>, `$t_$profIntOuv` <chr>,
#   haut <chr>, `$t_haut` <chr>, hautReel <chr>, `$t_hautReel` <chr>,
#   larg <chr>, `$t_larg` <chr>, larg2Reel <chr>, `$t_larg2Reel` <chr>,
#   largReel <chr>, `$t_largReel` <chr>, penturage <chr>, porteNb <chr>,
#   prof <chr>, `$t_prof` <chr>, prof2Reel <chr>, `$t_prof2Reel` <chr>,
#   profReel <chr>, `$t_profReel` <chr>, `$zones` <chr>, blind <chr>, …

$CabTFillerAuto
# A tibble: 86 × 94
   `eve$tiroirSeulement` `$profInt` `$t_$profInt` `$profIntOuv` `$t_$profIntOuv`
   <chr>                 <chr>      <chr>         <chr>         <chr>           
 1 true                  596.9      "23.5\""      596.9         "23.5\""        
 2 true                  596.9      "23.5\""      596.9         "23.5\""        
 3 true                  596.9      "23.5\""      596.9         "23.5\""        
 4 true                  596.9      "23.5\""      596.9         "23.5\""        
 5 true                  469.9      "18.5\""      469.9         "18.5\""        
 6 true                  596.9      "23.5\""      596.9         "23.5\""        
 7 true                  596.9      "23.5\""      596.9         "23.5\""        
 8 true                  596.9      "23.5\""      596.9         "23.5\""        
 9 true                  596.9      "23.5\""      596.9         "23.5\""        
10 true                  596.9      "23.5\""      596.9         "23.5\""        
# ℹ 76 more rows
# ℹ 89 more variables: haut <chr>, `$t_haut` <chr>, hautReel <chr>,
#   `$t_hautReel` <chr>, larg <chr>, `$t_larg` <chr>, `$t_larg2Reel` <chr>,
#   largReel <chr>, `$t_largReel` <chr>, prof <chr>, `$t_prof` <chr>,
#   prof2Reel <chr>, `$t_prof2Reel` <chr>, profReel <chr>, `$t_profReel` <chr>,
#   blind <chr>, blindD <chr>, blindEpais <chr>, `$t_blindEpais` <chr>,
#   blindG <chr>, blindVisLarg <chr>, `$t_blindVisLarg` <chr>, isHotte <chr>, …

$CabVanity
# A tibble: 133 × 113
   `eve$porteAvec` `eve$tiroirSeulement` `$forme` `$profInt` `$t_$profInt`
   <chr>           <chr>                 <chr>    <chr>      <chr>        
 1 true            false                 Cube     504.825    "19.875\""   
 2 false           true                  Cube     504.825    "19.875\""   
 3 true            false                 Cube     504.825    "19.875\""   
 4 false           true                  Cube     504.825    "19.875\""   
 5 true            false                 Cube     504.825    "19.875\""   
 6 false           true                  Cube     504.825    "19.875\""   
 7 false           true                  Cube     504.825    "19.875\""   
 8 true            false                 Cube     504.825    "19.875\""   
 9 true            false                 Cube     504.825     <NA>        
10 false           true                  Cube     504.825     <NA>        
# ℹ 123 more rows
# ℹ 108 more variables: `$profIntOuv` <chr>, `$t_$profIntOuv` <chr>,
#   haut <chr>, `$t_haut` <chr>, hautReel <chr>, `$t_hautReel` <chr>,
#   larg <chr>, `$t_larg` <chr>, larg2Reel <chr>, `$t_larg2Reel` <chr>,
#   largReel <chr>, `$t_largReel` <chr>, penturage <chr>, porteNb <chr>,
#   prof <chr>, `$t_prof` <chr>, prof2Reel <chr>, `$t_prof2Reel` <chr>,
#   profReel <chr>, `$t_profReel` <chr>, `$zones` <chr>, blind <chr>, …

$CabWall
# A tibble: 1,240 × 127
   `$forme` `$profInt` `$t_$profInt` `$profIntOuv` `$t_$profIntOuv` haut 
   <chr>    <chr>      <chr>         <chr>         <chr>            <chr>
 1 Cube     304.8      "12\""        304.8         "12\""           990.6
 2 Cube     304.175    "11.975394\"" 304.175       "11.975394\""    990.6
 3 Cube     304.8      "12\""        304.8         "12\""           990.6
 4 Cube     304.8      "12\""        304.8         "12\""           990.6
 5 Cube     581.025    "22.875\""    581.025       "22.875\""       533.4
 6 Cube     304.8      "12\""        304.8         "12\""           990.6
 7 Cube     454.025    "17.875\""    454.025       "17.875\""       990.6
 8 Cube     304.8      "12\""        304.8         "12\""           990.6
 9 Cube     304.8      "12\""        304.8         "12\""           990.6
10 Cube     304.8       <NA>         304.8          <NA>            990.6
# ℹ 1,230 more rows
# ℹ 121 more variables: hautReel <chr>, larg <chr>, larg2Reel <chr>,
#   largReel <chr>, penturage <chr>, porteNb <chr>, prof <chr>,
#   prof2Reel <chr>, profReel <chr>, `$zones` <chr>, blind <chr>, blindD <chr>,
#   blindEpais <chr>, `$t_blindEpais` <chr>, blindG <chr>, blindVisLarg <chr>,
#   `$t_blindVisLarg` <chr>, edgeDos <chr>, isHotte <chr>,
#   `eve$porteAvec` <chr>, `eve$tiroirSeulement` <chr>, codePanelDos <chr>, …
…
$CabWFillerAuto
# A tibble: 216 × 96
   `eve$tiroirSeulement` `$profInt` `$t_$profInt` `$profIntOuv` `$t_$profIntOuv`
   <chr>                 <chr>      <chr>         <chr>         <chr>           
 1 true                  320.675    "12.625\""    320.675       "12.625\""      
 2 true                  146.05     "5.75\""      146.05        "5.75\""        
 3 true                  320.675    "12.625\""    320.675       "12.625\""      
 4 true                  320.675    "12.625\""    320.675       "12.625\""      
 5 true                  320.675    "12.625\""    320.675       "12.625\""      
 6 true                  419.1      "16.5\""      419.1         "16.5\""        
 7 true                  320.675    "12.625\""    320.675       "12.625\""      
 8 true                  320.675    "12.625\""    320.675       "12.625\""      
 9 true                  469.9      "18.5\""      469.9         "18.5\""        
10 true                  704.85     "27.75\""     704.85        "27.75\""       
# ℹ 206 more rows
# ℹ 91 more variables: haut <chr>, `$t_haut` <chr>, hautReel <chr>,
#   `$t_hautReel` <chr>, larg <chr>, `$t_larg` <chr>, larg2Reel <chr>,
#   `$t_larg2Reel` <chr>, largReel <chr>, `$t_largReel` <chr>, prof <chr>,
#   `$t_prof` <chr>, prof2Reel <chr>, `$t_prof2Reel` <chr>, profReel <chr>,
#   `$t_profReel` <chr>, blind <chr>, blindD <chr>, blindEpais <chr>,
#   `$t_blindEpais` <chr>, blindG <chr>, blindVisLarg <chr>, …
…
$Comm
# A tibble: 714 × 191
   `$aNote` `$documSource` `$estCQ` `$estCQSup` `$estImport` `$estReprise`
   <chr>    <chr>          <chr>    <chr>       <chr>        <chr>        
 1 "false"  "false"        "false"  "false"     "false"      "false"      
 2 ""       ""             ""       ""          ""           ""           
 3 "false"  "false"        "false"  "false"     "false"      "false"      
 4 "false"  "false"        "false"  "false"     "false"      "false"      
 5 "false"  "false"        "false"  "false"     "false"      "false"      
 6 "false"  "false"        "false"  "false"     "false"      "false"      
 7 "false"  "false"        "false"  "false"     "false"      "false"      
 8 "false"  "false"        "false"  "false"     "false"      "false"      
 9 "false"  "false"        "false"  "false"     "false"      "false"      
10 "false"  "false"        "false"  "false"     "false"      "false"      
# ℹ 704 more rows
# ℹ 185 more variables: `$acompte1` <chr>, `$acompte2` <chr>,
#   `$dateAcompte1Emis` <chr>, `$fgfExclu` <chr>, `$installExclu` <chr>,
#   `$matExclu` <chr>, `$moExclu` <chr>, `$pourcAcompte1` <chr>,
#   `$pourcAcompte2` <chr>, `$solde` <chr>, `$transportExclu` <chr>,
#   `$appNotifObligs` <chr>, `$appNotifs` <chr>, `$codeClient2` <chr>,
#   `$dateValidite` <chr>, `$delaiPrevExped` <chr>, `$disclaimers` <chr>, …

$Commentaire
# A tibble: 28 × 7
   `$commentaire`              `$date` `$emetteur` `$etape` `$pourManufacturier`
   <chr>                       <chr>   <chr>       <chr>    <chr>               
 1 "test notestrue"            2024/0… glebel      Manufac… true                
 2 "test note 2true"           2024/0… glebel      Manufac… true                
 3 "Livraison SANS FRAIS au m… 2025/0… crobitaill… Manufac… true                
 4 "Comptoir et dosseret de q… 2025/0… crobitaill… Manufac… true                
 5 "Ajout à la cuisine démo A… 2025/0… crobitaill… Manufac… true                
 6 "Comptoir en corian HORS-C… 2025/0… crobitaill… Manufac… true                
 7 "Livraison entre le 15-25 … 2025/0… abreault    Manufac… true                
 8 "Centre plomberie évier à … 2025/0… rbouchard@… Manufac… truetrue            
 9 "Tuyau de plomberie d'évie… 2025/0… rbouchard@… Manufac… true                
10 "Caissons Nugreentrue"      2025/0… abreault    Manufac… true                
# ℹ 18 more rows
# ℹ 2 more variables: `$typeEmetteur` <chr>, commandes <chr>

$Comptoir
# A tibble: 676 × 69
   `$unitComptoir` `$vendu` `$code`   `$surface` `$t_$surface` `$surfP2` long   
   <chr>           <chr>    <chr>     <chr>      <chr>         <chr>     <chr>  
 1 391.48          true     quartz    4.82       "0.189764\""  4.824219  742.95 
 2 341.94          true     quartz    4.21       "0.165748\""  4.205729  647.7  
 3 1540.74         true     quartz    18.97      "0.74685\""   20.054688 3524.2…
 4 209.28          true     quartz    2.72       "0.107087\""  2.921875  419.1  
 5 951.75          true     quartz    12.37      "0.487008\""  13.28125  1905   
 6 220.92          true     quartz    2.72       "0.107087\""  2.921875  419.1  
 7 220.92          true     quartz    2.72       "0.107087\""  2.921875  419.1  
 8 341.94          true     quartz    4.21       "0.165748\""  4.515625  647.7  
 9 341.94          true     quartz    4.21       "0.165748\""  4.515625  647.7  
10 <NA>            true     stratifie <NA>       "0\""         0         <NA>   
# ℹ 666 more rows
# ℹ 62 more variables: `$t_long` <chr>, prof <chr>, `$t_prof` <chr>,
#   methCutOut <chr>, buttDoor <chr>, typeAPart <chr>, `$deLumiere` <chr>,
#   isBDMat <chr>, `$cle` <chr>, `$enErreur` <chr>, `$estExtra` <chr>,
#   `$no` <chr>, `$nom` <chr>, `$qte` <chr>, noKitItem <chr>,
#   `$aBomCustom` <chr>, `$gTot` <chr>, `$unit` <chr>, cost_mo <chr>,
#   cost_moCumul <chr>, price_mo <chr>, price_moCumul <chr>, dessinCAD <chr>, …

$Cooking
# A tibble: 182 × 63
   espaceLarg `$t_espaceLarg` haut    `$t_haut`  larg  `$t_larg` prof  `$t_prof`
   <chr>      <chr>           <chr>   <chr>      <chr> <chr>     <chr> <chr>    
 1 1.5875     "1/16\""        434.975 "17.125\"" 758.… "29 7/8\… 431.8 "17\""   
 2 14.2875    "9/16\""        914.4   "36\""     758.… "29 7/8\… 733.… "28 7/8\…
 3 14.2875     <NA>           914.4    <NA>      758.…  <NA>     704.…  <NA>    
 4 14.2875    "9/16\""        914.4   "36\""     758.… "29 7/8\… 733.… "28 7/8\…
 5 14.2875    "9/16\""        914.4   "36\""     758.… "29 7/8\… 733.… "28 7/8\…
 6 14.2875    "9/16\""        914.4   "36\""     758.… "29 7/8\… 733.… "28 7/8\…
 7 14.2875     <NA>           914.4    <NA>      758.…  <NA>     704.…  <NA>    
 8 14.2875    "9/16\""        914.4   "36\""     758.… "29 7/8\… 733.… "28 7/8\…
 9 14.2875    "9/16\""        914.4   "36\""     758.… "29 7/8\… 733.… "28 7/8\…
10 14.2875    "9/16\""        914.4   "36\""     758.… "29 7/8\… 733.… "28 7/8\…
# ℹ 172 more rows
# ℹ 55 more variables: profTot <chr>, `$t_profTot` <chr>, buttDoor <chr>,
#   typeAPart <chr>, `$deLumiere` <chr>, `$volume` <chr>, isBDMat <chr>,
#   surfaceTot <chr>, kitTransfere <chr>, `$aBomCustom` <chr>, `$cle` <chr>,
#   `$code` <chr>, `$enErreur` <chr>, `$estExtra` <chr>, `$no` <chr>,
#   `$nom` <chr>, `$qte` <chr>, `$vendu` <chr>, codeAff <chr>,
#   fourniParClient <chr>, noKitItem <chr>, `$t_murDegagement` <chr>, …

$DessousBT
# A tibble: 2,273 × 36
   sansToeKickAPart toeKickHaut `$t_toeKickHaut` toeKickProf `$t_toeKickProf`
   <chr>            <chr>       <chr>            <chr>       <chr>           
 1 false            101.6       "4\""            76.2        "3\""           
 2 false            101.6       "4\""            76.2        "3\""           
 3 false            101.6       "4\""            50.8        "2\""           
 4 false            101.6       "4\""            50.8        "2\""           
 5 false            101.6       "4\""            50.8        "2\""           
 6 false            101.6       "4\""            50.8        "2\""           
 7 false            101.6       "4\""            50.8        "2\""           
 8 false            101.6       "4\""            50.8        "2\""           
 9 false            101.6       "4\""            50.8        "2\""           
10 false            101.6       "4\""            76.2        "3\""           
# ℹ 2,263 more rows
# ℹ 31 more variables: toeKickType <chr>, `$cle` <chr>, `$code` <chr>,
#   `$enErreur` <chr>, `$estExtra` <chr>, `$no` <chr>, `$nom` <chr>,
#   `$qte` <chr>, `$vendu` <chr>, `$aBomCustom` <chr>, `$unit` <chr>,
#   methCutOut <chr>, commandes <chr>, `$statNotes` <chr>, `$qteTr` <chr>,
#   `$statErr` <chr>, coupPiedAvSans <chr>, dessousSans <chr>,
#   noNotchToeKick <chr>, `$estPrixAdmin` <chr>, cutOutHaut <chr>, …

$DessousHotte
# A tibble: 99 × 33
   `$cle` `$code` `$no` `$nom` `$qte` cutOutPosCentre cutOutPosD `$t_cutOutPosD`
   <chr>  <chr>   <chr> <chr>  <chr>  <chr>           <chr>      <chr>          
 1 287    Bottom  1     Bas    1      true            203.2      "8\""          
 2 1609   Bottom  1     Bas    1      <NA>            <NA>        <NA>          
 3 21     Bottom  1     Bas    1      <NA>            <NA>        <NA>          
 4 208    Bottom  1     Bas    1      <NA>            <NA>        <NA>          
 5 167    Bottom  1     Bas    1      <NA>            <NA>        <NA>          
 6 145    Bottom  1     Bas    1      true            203.2      "8\""          
 7 115    Bottom  1     Bas    1      true            75.40625   "2.96875\""    
 8 115    Bottom  1     Bas    1      true            75.40625   "2.96875\""    
 9 24     Bottom  1     Bas    1      true            254        "10\""         
10 262    Bottom  1     Bas    1      <NA>            <NA>        <NA>          
# ℹ 89 more rows
# ℹ 25 more variables: cutOutPosG <chr>, `$t_cutOutPosG` <chr>,
#   cutOutPosH <chr>, `$t_cutOutPosH` <chr>, methCutOut <chr>,
#   methCutOutForme <chr>, commandes <chr>, `$enErreur` <chr>,
#   `$estExtra` <chr>, `$vendu` <chr>, `$aBomCustom` <chr>, `$unit` <chr>,
#   cutOutHaut <chr>, `$t_cutOutHaut` <chr>, cutOutLarg <chr>,
#   `$t_cutOutLarg` <chr>, cutOutPosB <chr>, `$t_cutOutPosB` <chr>, …

$DessousWall
# A tibble: 1,148 × 46
   `$cle` `$code` `$enErreur` `$estExtra` `$no` `$nom` `$qte` `$qteTr` `$vendu`
   <chr>  <chr>   <chr>       <chr>       <chr> <chr>  <chr>  <chr>    <chr>   
 1 22     Bottom  "false"     "false"     1     Bas    1      0        "0"     
 2 27     Bottom  ""          ""          1     Bas    1      0        ""      
 3 114    Bottom  "false"     "false"     1     Bas    1      <NA>     "0"     
 4 22     Bottom  "false"     "false"     1     Bas    1      <NA>     "0"     
 5 103    Bottom  "false"     "false"     1     Bas    1      <NA>     "0"     
 6 169    Bottom  "false"     "false"     1     Bas    1      <NA>     "0"     
 7 178    Bottom  "false"     "false"     1     Bas    1      <NA>     "0"     
 8 199    Bottom  "false"     "false"     1     Bas    1      <NA>     "0"     
 9 42     Bottom  "false"     "false"     1     Bas    1      <NA>     "0"     
10 22     Bottom   <NA>       "false"     1     Bas    1      0        "0"     
# ℹ 1,138 more rows
# ℹ 37 more variables: `$aBomCustom` <chr>, `$unit` <chr>, methCutOut <chr>,
#   commandes <chr>, underLight <chr>, underLightModel <chr>,
#   underLightNb <chr>, `$estPrixAdmin` <chr>, cutOutPosB <chr>,
#   `$t_cutOutPosB` <chr>, cutOutPosCentre <chr>, cutOutPosD <chr>,
#   `$t_cutOutPosD` <chr>, cutOutPosG <chr>, `$t_cutOutPosG` <chr>,
#   cutOutPosH <chr>, `$t_cutOutPosH` <chr>, diamCutOut <chr>, …
…
